{
  "goal": 10,
  "allSkiDays": [
    {
      "resort": "Kirkwood",
      "date": "2018-10-25",
      "powder": true,
      "backcountry": false
    },
    {
      "resort": "Squaw Valley",
      "date": "2018-09-25",
      "powder": false,
      "backcountry": true
    }
  ],
  "errors": [],
  "resortNames": {
    "fetching": false,
    "suggestions": ["Squaw", "Snowbird", "Stowe", "Steamboat"]
  }
}